{
    "color": {
        "primary": "339C65",
        "home_greeting_text": "F5E8DD",
        "default_account_bg": "CCD3CA",
        "highlight_account_type_bg": "B5C0D0",
        "bg_home_color_1": "E1F9D8",
        "bg_home_color_2": "0CA18D",
        "bg_menu": "FFFFFF",
        "menu_border": "FFFFFF",
        "text_menu": "000000",
        "text": "000000",
        "action_text": "139D61",
        "bg_widget": "33FFFFFF"
    },
    "image": {
        "home_bg": "Assets/Dark/classic_home_bg_dark.png",
        "home_season_bg": "",
        "ic_new_account": "Assets/Dark/ic_new_account.png",
        "ic_payment": "Assets/Dark/ic_payment.png",
        "ic_td": "Assets/Dark/ic_td.png",
        "ic_transfer": "Assets/Dark/ic_transfer.png",
        "ic_withdrawal": "Assets/Dark/ic_withdrawal.png",
        "ic_account": "Assets/Dark/ic_wallet.png",
        "ic_tab_scan": "Assets/Dark/ic_tab_scan.png"
    }
}